<?xml version="1.0" encoding="utf-8"?>
<!-- Generator: Adobe Illustrator 18.0.0, SVG Export Plug-In . SVG Version: 6.00 Build 0)  -->
<!DOCTYPE svg PUBLIC "-//W3C//DTD SVG 1.1//EN" "http://www.w3.org/Graphics/SVG/1.1/DTD/svg11.dtd">
<svg version="1.1" id="Layer_1" xmlns="http://www.w3.org/2000/svg" xmlns:xlink="http://www.w3.org/1999/xlink" x="0px" y="0px"
	 viewBox="140.4 55.2 117.3 200.1" enable-background="new 140.4 55.2 117.3 200.1" xml:space="preserve">
<g id="Block_COlour">
</g>
<rect x="140.4" y="238.8" fill="none" width="117.3" height="13.6"/>
<g enable-background="new    ">
	<path fill="#1D1B1D" d="M151.8,240.8c-0.1,0.2-0.3,0.3-0.4,0.5c-0.1,0.2-0.3,0.3-0.4,0.5c-0.1-0.1-0.2-0.2-0.3-0.3
		c-0.1-0.1-0.3-0.2-0.5-0.3c-0.2-0.1-0.4-0.2-0.6-0.2c-0.2-0.1-0.5-0.1-0.7-0.1c-0.6,0-1.1,0.2-1.4,0.5c-0.3,0.4-0.5,0.8-0.5,1.3
		c0,0.3,0.1,0.5,0.2,0.7c0.1,0.2,0.2,0.3,0.4,0.5c0.2,0.1,0.4,0.2,0.6,0.3c0.2,0.1,0.4,0.2,0.7,0.2c0.4,0.1,0.8,0.3,1.2,0.5
		c0.4,0.2,0.8,0.4,1.2,0.7s0.7,0.6,0.9,1c0.2,0.4,0.4,0.9,0.4,1.5c0,0.5-0.1,0.9-0.3,1.3c-0.2,0.4-0.4,0.7-0.7,1
		c-0.3,0.3-0.7,0.5-1.1,0.6c-0.4,0.1-0.9,0.2-1.3,0.2c-0.4,0-0.8-0.1-1.2-0.2c-0.4-0.1-0.8-0.3-1.1-0.4c-0.3-0.2-0.6-0.4-0.9-0.6
		c-0.3-0.2-0.5-0.4-0.6-0.7l0.9-0.9c0.1,0.2,0.3,0.3,0.5,0.5c0.2,0.2,0.4,0.3,0.6,0.5c0.2,0.1,0.5,0.3,0.8,0.3
		c0.3,0.1,0.6,0.1,0.9,0.1c0.3,0,0.6,0,0.8-0.1c0.3-0.1,0.5-0.2,0.7-0.4c0.2-0.2,0.4-0.4,0.5-0.6c0.1-0.2,0.2-0.5,0.2-0.8
		c0-0.4-0.1-0.8-0.3-1.1s-0.5-0.5-0.8-0.7c-0.3-0.2-0.6-0.3-1-0.4c-0.3-0.1-0.6-0.2-0.9-0.3c-0.2-0.1-0.4-0.2-0.7-0.3
		c-0.3-0.1-0.5-0.3-0.8-0.5s-0.5-0.5-0.6-0.8c-0.2-0.3-0.3-0.7-0.3-1.2c0-0.4,0-0.7,0.1-1.1c0.1-0.4,0.3-0.7,0.5-1
		c0.3-0.3,0.6-0.5,1-0.7s0.9-0.3,1.5-0.3c0.4,0,0.9,0.1,1.4,0.2C150.7,239.9,151.2,240.3,151.8,240.8z"/>
	<path fill="#1D1B1D" d="M160.1,251.3c-0.6,0-1.1-0.1-1.7-0.2c-0.5-0.2-0.9-0.4-1.3-0.7c-0.4-0.3-0.7-0.7-0.9-1.2
		c-0.2-0.5-0.3-1-0.3-1.7v-7.8h1.4v7.8c0,0.4,0.1,0.8,0.2,1.1c0.1,0.3,0.3,0.6,0.6,0.8c0.2,0.2,0.5,0.4,0.9,0.5
		c0.3,0.1,0.7,0.2,1.1,0.2c0.4,0,0.8-0.1,1.1-0.2c0.3-0.1,0.6-0.3,0.9-0.5c0.2-0.2,0.4-0.5,0.6-0.8c0.1-0.3,0.2-0.7,0.2-1.1v-7.8
		h1.4v7.8c0,0.6-0.1,1.2-0.3,1.7c-0.2,0.5-0.5,0.9-0.9,1.2c-0.4,0.3-0.8,0.6-1.3,0.7C161.3,251.2,160.7,251.3,160.1,251.3z"/>
	<path fill="#1D1B1D" d="M173.9,240.8c-0.1,0.2-0.3,0.3-0.4,0.5c-0.1,0.2-0.3,0.3-0.4,0.5c-0.1-0.1-0.2-0.2-0.3-0.3
		c-0.1-0.1-0.3-0.2-0.5-0.3c-0.2-0.1-0.4-0.2-0.6-0.2c-0.2-0.1-0.5-0.1-0.7-0.1c-0.6,0-1.1,0.2-1.4,0.5c-0.3,0.4-0.5,0.8-0.5,1.3
		c0,0.3,0.1,0.5,0.2,0.7c0.1,0.2,0.2,0.3,0.4,0.5c0.2,0.1,0.4,0.2,0.6,0.3c0.2,0.1,0.4,0.2,0.7,0.2c0.4,0.1,0.8,0.3,1.2,0.5
		c0.4,0.2,0.8,0.4,1.2,0.7s0.7,0.6,0.9,1c0.2,0.4,0.4,0.9,0.4,1.5c0,0.5-0.1,0.9-0.3,1.3c-0.2,0.4-0.4,0.7-0.7,1
		c-0.3,0.3-0.7,0.5-1.1,0.6c-0.4,0.1-0.9,0.2-1.3,0.2c-0.4,0-0.8-0.1-1.2-0.2c-0.4-0.1-0.8-0.3-1.1-0.4c-0.3-0.2-0.6-0.4-0.9-0.6
		c-0.3-0.2-0.5-0.4-0.6-0.7l0.9-0.9c0.1,0.2,0.3,0.3,0.5,0.5c0.2,0.2,0.4,0.3,0.6,0.5c0.2,0.1,0.5,0.3,0.8,0.3
		c0.3,0.1,0.6,0.1,0.9,0.1c0.3,0,0.6,0,0.8-0.1c0.3-0.1,0.5-0.2,0.7-0.4c0.2-0.2,0.4-0.4,0.5-0.6c0.1-0.2,0.2-0.5,0.2-0.8
		c0-0.4-0.1-0.8-0.3-1.1s-0.5-0.5-0.8-0.7c-0.3-0.2-0.6-0.3-1-0.4c-0.3-0.1-0.6-0.2-0.9-0.3c-0.2-0.1-0.4-0.2-0.7-0.3
		c-0.3-0.1-0.5-0.3-0.8-0.5s-0.5-0.5-0.6-0.8c-0.2-0.3-0.3-0.7-0.3-1.2c0-0.4,0-0.7,0.1-1.1c0.1-0.4,0.3-0.7,0.5-1
		c0.3-0.3,0.6-0.5,1-0.7s0.9-0.3,1.5-0.3c0.4,0,0.9,0.1,1.4,0.2C172.8,239.9,173.3,240.3,173.9,240.8z"/>
	<path fill="#1D1B1D" d="M186,239.6v1.3h-3.9v10.3h-1.4v-10.3h-3.9v-1.3H186z"/>
	<path fill="#1D1B1D" d="M198.2,251.2h-1.4c-0.3-0.8-0.6-1.5-1-2.3c-0.3-0.8-0.6-1.5-1-2.3h-3.6c-0.3,0.8-0.6,1.5-1,2.3
		s-0.6,1.5-1,2.3H188c0.9-2,1.7-4,2.6-6.1c0.8-2,1.7-4,2.6-6.1c0.9,2,1.7,4,2.6,6.1C196.5,247.1,197.4,249.2,198.2,251.2z
		 M193.2,242.7l-0.1-0.5c-0.2,0.6-0.3,1.1-0.6,1.6c-0.2,0.5-0.5,1-0.7,1.6h2.5c-0.2-0.4-0.4-0.9-0.6-1.3
		C193.6,243.6,193.4,243.1,193.2,242.7z"/>
	<path fill="#1D1B1D" d="M201.8,239.6h1.4v11.6h-1.4V239.6z"/>
	<path fill="#1D1B1D" d="M217.6,239.6v12.1c-1.4-1.5-2.8-3-4.2-4.5c-1.4-1.5-2.8-3-4.2-4.5c-0.1-0.1-0.1-0.1-0.2-0.2
		s-0.1-0.1-0.2-0.2c0,0.1,0,0.2,0,0.3c0,0.1,0,0.2,0,0.3v8.4h-1.4v-12.1c1.4,1.5,2.8,3.1,4.2,4.6s2.8,3,4.2,4.6
		c0.1,0.1,0.1,0.1,0.2,0.2s0.1,0.1,0.2,0.2c0-0.1,0-0.2,0-0.3c0-0.1,0-0.2,0-0.3v-8.5H217.6z"/>
	<path fill="#1D1B1D" d="M227.9,239.1c1,1.3,2,2.6,3,3.9c1,1.3,2,2.6,3,3.9c1-1.3,2-2.6,3-3.9c1-1.3,2-2.6,3-3.9v12.1h-1.4v-7.8
		c0-0.1,0-0.2,0-0.3c0-0.1,0-0.2,0-0.3c-0.7,1.1-1.5,2.1-2.3,3.1c-0.8,1-1.6,2-2.4,3.1c-0.7-1-1.5-1.9-2.2-2.9
		c-0.7-1-1.5-1.9-2.2-2.9l-0.3-0.4c0,0.1,0,0.2,0,0.3c0,0.1,0,0.2,0,0.3v7.8h-1.4V239.1z"/>
	<path fill="#1D1B1D" d="M243.9,251.2v-11.6h7.1v1.3h-5.8v3.8h5.1v1.3h-5.1v3.9h6v1.3H243.9z"/>
</g>
<g>
	<g>
		<polygon fill="#42C4DC" points="177.6,229.5 184.3,217.5 191,229.5 		"/>
		<path fill="#1D1B1D" d="M184.3,218l6.3,11.2H178L184.3,218 M184.3,217l-7.1,12.7h14.2L184.3,217L184.3,217z"/>
	</g>
	<g>
		<path fill="#1D1B1D" d="M205.6,217.5l-6.3,11.2l-6.3-11.2H205.6 M206.4,217h-14.2l7.1,12.7L206.4,217L206.4,217z"/>
	</g>
	<g>
		<path fill="#1D1B1D" d="M213.8,218l6.3,11.2h-12.5L213.8,218 M213.8,217l-7.1,12.7h14.2L213.8,217L213.8,217z"/>
	</g>
</g>
<g id="Seed_Growing">
</g>
<g id="Seed_x5F_Vectors">
</g>
<g id="Bottom_Bar">
</g>
<g id="Layer_6">
</g>
<g id="Buttons">
</g>
<g id="Photo_Reference">
</g>
<g id="Icons">
</g>
<g id="Logos">
	<g>
		<g>
			<path fill="#1D1B1D" d="M199,195.1c-15.3,0-29.5-6.7-39.9-18.9c-8.4-9.8-11.7-22.5-9.8-37.8c2.1-16.8,17-39.2,32-58.9l5.3,9.7
				c-16.9,22.7-25.9,39.4-27.3,50.5c-1.5,12.1,1,22.1,7.4,29.6c8.5,9.9,20,15.4,32.4,15.4c19.2,0,29.3-12.4,32.7-16.5
				c6.4-7.8,8.9-18.2,7-29.3c-1.7-9.7-11.7-28.1-27.5-50.2l-17.9-25.2l6.5-8.5l19.5,27.5c12,16.8,26.8,39.9,29.3,54.6
				c2.4,14.1-0.9,27.5-9.2,37.7C235.3,180,222.9,195.1,199,195.1z"/>
			<path fill="#1D1B1D" d="M199,177.5c-10.3,0-19.9-4.6-27-12.9c-5.3-6.2-7.3-14.2-6-24.4c1.2-9.5,10.1-25.7,24.4-44.5l8.9-11.7
				l8.5,12c13.7,19.2,22.7,35.5,24.1,43.7c1.5,9.1-0.5,17.6-5.7,24C223.2,167.5,215,177.5,199,177.5z M199.1,101.1l-0.8,1
				c-15.3,20.1-21.6,33.6-22.3,39.5c-0.9,7.2,0.2,12.3,3.6,16.3c5.2,6,12.1,9.4,19.5,9.4c11.3,0,16.9-6.8,19.5-10.1
				c3.3-4,4.5-9.5,3.5-15.6c-0.7-4-6.1-16.7-22.3-39.4L199.1,101.1z"/>
			<polygon fill="#1D1B1D" points="215,140.3 183.2,140.3 199.1,111.9 			"/>
		</g>
	</g>
</g>
<g id="Text">
</g>
<g id="Navigation_x5F_Bar">
</g>
<g id="Status_x5F_Bar">
</g>
<g id="Labels">
</g>
</svg>
