<?xml version="1.0" encoding="utf-8"?>
<!-- Generator: Adobe Illustrator 18.0.0, SVG Export Plug-In . SVG Version: 6.00 Build 0)  -->
<!DOCTYPE svg PUBLIC "-//W3C//DTD SVG 1.1//EN" "http://www.w3.org/Graphics/SVG/1.1/DTD/svg11.dtd">
<svg version="1.1" id="Layer_1" xmlns="http://www.w3.org/2000/svg" xmlns:xlink="http://www.w3.org/1999/xlink" x="0px" y="0px"
	 viewBox="0 0 184.1 251" enable-background="new 0 0 184.1 251" xml:space="preserve">
<path opacity="0.5" fill="#C1D82F" d="M166.3,215.1C159,224,137,251,94.4,251c-27.3,0-52.6-12-71.2-33.8
	C8.1,199.7,2.3,177,5.7,149.9c2.8-22.6,18.6-50.8,37.7-78.5l-16.7-10l49.1-28.2l-1.6,56.6l-15.4-9.2c-21.6,31.2-33.3,54.9-35.4,71.6
	c-2.7,21.6,1.7,39.4,13.2,52.9c15.2,17.7,35.7,27.5,57.8,27.5c34.3,0,52.3-22.1,58.3-29.3c11.4-14,15.8-32.5,12.5-52.2
	c-2.9-17.4-20.8-50.1-49.1-89.7l-32-44.9L95.6,1.4l34.8,49.1c21.4,30,47.9,71.2,52.3,97.4C187,173.1,181.2,196.9,166.3,215.1z"/>
<path fill="#C1D82F" d="M161.6,213.7c-7.3,8.9-29.4,35.9-72,35.9c-27.3,0-52.6-12-71.2-33.8c-15-17.6-20.9-40.2-17.5-67.4
	C3.8,125.9,19.6,97.6,38.6,70L21.9,60L71,31.8l-1.6,56.6L54,79.2c-21.6,31.2-33.3,54.9-35.4,71.6c-2.7,21.6,1.7,39.4,13.2,52.9
	c15.2,17.7,35.7,27.5,57.8,27.5c34.3,0,52.3-22.1,58.3-29.3c11.4-14,15.8-32.5,12.5-52.2c-2.9-17.4-20.8-50.1-49.1-89.7l-32-44.9
	L90.9,0l34.8,49.1c21.4,30,47.9,71.2,52.3,97.4C182.3,171.6,176.4,195.5,161.6,213.7z"/>
</svg>
