<?xml version="1.0" encoding="utf-8"?>
<!-- Generator: Adobe Illustrator 18.0.0, SVG Export Plug-In . SVG Version: 6.00 Build 0)  -->
<!DOCTYPE svg PUBLIC "-//W3C//DTD SVG 1.1//EN" "http://www.w3.org/Graphics/SVG/1.1/DTD/svg11.dtd">
<svg version="1.1" id="Layer_1" xmlns="http://www.w3.org/2000/svg" xmlns:xlink="http://www.w3.org/1999/xlink" x="0px" y="0px"
	 viewBox="0 0 400 289" enable-background="new 0 0 400 289" xml:space="preserve">
<g id="Text">
</g>
<g id="Table_x5F_Icon">
</g>
<g id="White_x5F_Goods_x5F_General_x5F_Icon">
</g>
<g id="Bed_x5F_Frames_x5F_Icon">
</g>
<g id="Draws_x5F_Icon">
</g>
<g id="Mobile_x5F_Phone_x5F_Icon">
</g>
<g id="Telephone_x5F_Icon">
</g>
<g id="Speakers_x5F_Icon">
</g>
<g id="Car_x5F_Accessories_x5F_Icon">
</g>
<g id="Tyre_x5F_Icon">
</g>
<g id="Layer_12">
</g>
<g id="Layer_13">
</g>
<g id="Layer_14">
</g>
<g id="Layer_15">
</g>
<g id="Layer_16">
</g>
<g id="Layer_17">
</g>
<g id="Layer_19">
</g>
<g id="Layer_20">
</g>
<g id="Layer_21">
</g>
<g id="Layer_22">
</g>
<g id="Layer_23">
</g>
<g id="Layer_24">
</g>
<g id="Layer_25">
</g>
<g id="Layer_26">
</g>
<g id="Layer_18">
</g>
<g id="Layer_27">
</g>
<g id="Layer_28">
</g>
<g id="Layer_29">
</g>
<g id="Layer_30">
</g>
<g id="Layer_31">
</g>
<g id="Layer_32">
	<path fill="#1D1A1C" d="M199.9,0C199.9,0,97,129,97,185.9S143.2,289,199.9,289c56.9,0,102.9-46.2,102.9-103.1
		C303,129,199.9,0,199.9,0z M199.9,272.5c-47.6,0-86.4-38.8-86.4-86.6c0-33.2,48.6-108.8,86.4-158.9
		c37.7,50.1,86.4,125.7,86.4,158.9C286.5,233.5,247.7,272.5,199.9,272.5z"/>
	<path fill="#1D1A1C" d="M268.5,185.7c0,38.3-31.1,69.5-69.5,69.5s-69.5-31.1-69.5-69.5c0-0.8,0-1.4,0-2.3h93.8l23.5-44.1l7.2,3.9
		l-21.4,40.2h3.9l24.5-24.5l5.8,5.8l-18.8,18.8h20.2C268.5,184.3,268.5,185.1,268.5,185.7z"/>
	<path fill="#1D1A1C" d="M211.6,154.4c0.6,0.8,1,1.4,1.6,2.3l-3.5,2.3c-0.4-0.8-1-1.4-1.4-2.3c-3.9-5.6-8.9-12.6-2.7-22.7
		c1-1.4,2.3-2.9,3.5-4.1c4.9-5.2,9.5-10.1,0.8-20.2l3.1-2.7c11.1,13,3.9,20.6-1,25.8c-1.2,1.2-2.3,2.5-3.1,3.5
		C204.4,144.1,207.7,148.8,211.6,154.4z"/>
	<path fill="#1D1A1C" d="M188.6,130.1l-0.4,0.4c-5.8,4.7-9.3,10.5-9.3,15.9c0,3.7,1.6,7,5.2,9.9l-2.7,3.3c-4.3-3.5-6.8-8-6.8-13
		c0-6.4,3.9-13.4,10.5-18.8c2.9-4.3,4.1-9.5-4.1-17.7l2.9-2.9C192.5,115,193.7,122.2,188.6,130.1z"/>
	<path fill="#1D1A1C" d="M202.8,130.5l-0.2,0.2c-5.2,3.7-8.2,7.6-8.9,11.7c-0.6,4.1,1,8.7,5.2,14.2l-3.3,2.5c-3.1-4.1-7-10.3-6-17.3
		c0.8-5.2,4.3-10.1,10.3-14.4c3.1-3.3,3.1-10.1-4.3-17.5l2.9-2.9c4.1,4.1,6.6,8.7,7.2,13C206.5,123.9,205.3,127.8,202.8,130.5z"/>
</g>
<g id="Layer_33">
</g>
<g id="Layer_34">
</g>
<g id="Layer_35">
</g>
<g id="Layer_36">
</g>
<g id="Layer_37">
</g>
<g id="Layer_38">
</g>
<g id="Layer_39">
</g>
<g id="Layer_40">
</g>
<g id="Layer_41">
</g>
<g id="Layer_42">
</g>
<g id="Layer_43">
</g>
<g id="Layer_44">
</g>
<g id="Layer_45">
</g>
<g id="Layer_46">
</g>
<g id="Layer_1_1_">
</g>
<g id="nyt_x5F_exporter_x5F_info">
</g>
</svg>
