<?xml version="1.0" encoding="utf-8"?>
<!-- Generator: Adobe Illustrator 18.0.0, SVG Export Plug-In . SVG Version: 6.00 Build 0)  -->
<!DOCTYPE svg PUBLIC "-//W3C//DTD SVG 1.1//EN" "http://www.w3.org/Graphics/SVG/1.1/DTD/svg11.dtd">
<svg version="1.1" id="Layer_1" xmlns="http://www.w3.org/2000/svg" xmlns:xlink="http://www.w3.org/1999/xlink" x="0px" y="0px"
	 viewBox="0 0 400 289" enable-background="new 0 0 400 289" xml:space="preserve">
<g id="Text">
</g>
<g id="Table_x5F_Icon">
</g>
<g id="White_x5F_Goods_x5F_General_x5F_Icon">
</g>
<g id="Bed_x5F_Frames_x5F_Icon">
</g>
<g id="Draws_x5F_Icon">
</g>
<g id="Mobile_x5F_Phone_x5F_Icon">
</g>
<g id="Telephone_x5F_Icon">
</g>
<g id="Speakers_x5F_Icon">
</g>
<g id="Car_x5F_Accessories_x5F_Icon">
</g>
<g id="Tyre_x5F_Icon">
</g>
<g id="Layer_12">
</g>
<g id="Layer_13">
</g>
<g id="Layer_14">
</g>
<g id="Layer_15">
</g>
<g id="Layer_16">
</g>
<g id="Layer_17">
</g>
<g id="Layer_19">
</g>
<g id="Layer_20">
</g>
<g id="Layer_21">
</g>
<g id="Layer_22">
</g>
<g id="Layer_23">
</g>
<g id="Layer_24">
</g>
<g id="Layer_25">
	<g>
		<polygon fill="#C3D82F" points="164.2,177.9 164.2,177.9 163.8,177.7 163.8,177.5 		"/>
		<polygon fill="#C3D82F" points="236,177.5 236,177.9 236,177.9 235.6,177.7 		"/>
		<polygon fill="#C3D82F" points="163.8,177.5 164.2,177.9 164.2,177.9 163.8,177.7 		"/>
		<polygon fill="#C3D82F" points="236,177.5 236,177.9 236,177.9 235.6,177.7 		"/>
	</g>
	<path fill="#1D1A1C" d="M199.9,0C199.9,0,97,129,97,185.9s46.2,102.9,102.9,102.9c56.9,0,103.1-46.2,103.1-102.9
		C303,129,199.9,0,199.9,0z M284,157.1l-10.3,15.3c-1.9-7-4.9-15-9.1-23.9l18.6,7.2C283.6,156,283.8,156.7,284,157.1z M269.4,184.7
		c0,38.1-31.1,69.3-69.3,69.3s-69.3-31.1-69.3-69.3c0-4.3,2.3-29.1,46.8-97.3c7-10.5,14.4-21.6,22.5-33
		C242.4,113.6,269.4,164.3,269.4,184.7z M281.3,150.7l-13.6-5.2l4.9-13.6C276,138.3,278.8,144.7,281.3,150.7z M270.2,127.2
		l-6.6,18.8c-3.7-7.6-7.8-15.7-12.6-24.1l17.9,2.9C269.4,125.5,269.8,126.4,270.2,127.2z M266.5,120.4l-15.9-2.5l6.2-14.2
		C260.3,109.3,263.4,114.8,266.5,120.4z M254.3,99.6l-7,16.1c-3.9-6.8-8.2-13.8-12.6-20.8l19,3.5C253.9,98.7,254.1,99.2,254.3,99.6z
		 M251,93.8l-16.7-3.1l5.8-14C243.8,82.5,247.3,88,251,93.8z M237.4,73L231,88.8c-3.3-5.2-6.8-10.5-10.3-15.7l16.3-1
		C237,72.4,237.2,72.6,237.4,73z M234.3,68.2l-12.6,0.8l6.2-10.1C230.2,62,232.3,65.1,234.3,68.2z M226.1,54.8l-0.4,0.6l-8,13.2
		c-3.1-4.5-6.4-9.3-9.5-13.8C208.1,54.8,226.1,54.8,226.1,54.8z M222.6,51.1h-13.4l5.2-11.3C217.2,43.3,219.9,47.2,222.6,51.1z
		 M199.9,20.2c3.1,4.1,6.6,8.7,10.3,13.6l-10.1,5.4l-10.3-5.4C193.3,29.1,196.8,24.3,199.9,20.2z M199.3,43.1h1.9l10.1-5.4l-6,13
		c-1.6-2.5-3.5-4.7-5.2-7c-1.6,2.5-3.5,4.9-5.6,7.6l-6.2-13.6L199.3,43.1z M185.3,40l5.2,11.3h-13.2C179.9,47.4,182.6,43.7,185.3,40
		z M191.7,55.2c-2.9,4.1-5.8,8.2-8.9,12.8l-8.2-12.8H191.7z M172.3,58.5l6.8,10.7l-13.4-0.8C167.7,64.9,170,61.6,172.3,58.5z
		 M163.2,71.9l16.3,1c-2.5,3.5-4.7,7.2-7.2,10.7c-0.8,1.2-1.6,2.7-2.5,3.9l-7-15.3C162.8,72.4,163,72.1,163.2,71.9z M160.3,76.3
		l6.6,14.4l-17.7,3.1C152.7,88,156.4,82,160.3,76.3z M146.3,98.1l18.8-3.3c-4.5,7-8.5,13.6-12,19.6l-7.8-14.8
		C145.7,99.2,146.1,98.7,146.3,98.1z M143.2,103.7l7.4,14.2l-17.3,2.9C136.4,115,139.7,109.3,143.2,103.7z M131,124.9l17.9-3.1
		c-4.5,8-8.2,15-11.1,21.4l-7.4-17.3C130.6,125.7,130.8,125.3,131,124.9z M128,130.7l6.6,15.3l-16.3,5.4
		C121.2,144.7,124.5,137.7,128,130.7z M116.4,155.8l18.3-6.2c-4.1,9.3-6.8,16.5-8.2,21.9l-10.3-14.8
		C116.4,156.5,116.4,156.2,116.4,155.8z M126.3,202l-16.3-9.3l14.6-12.4c-0.2,2.1-0.4,3.3-0.4,4.3
		C124.5,190.7,125.1,196.4,126.3,202z M109.4,185.9c0-7,1.9-15.5,5.2-24.9l9.9,14.4l-15,13C109.4,187.6,109.4,186.8,109.4,185.9z
		 M110,197.3l16.1,9.1l-9.3,15.7C113.5,214.4,111.3,205.9,110,197.3z M128.6,209.8c2.3,6.4,5.4,12.4,9.1,17.9l-18.1-2.5L128.6,209.8
		z M120.5,229.2l18.8,2.5l-4.7,16.5C129,242.6,124.2,236.2,120.5,229.2z M142.6,234c4.3,4.9,9.1,9.3,14.4,13l-18.8,2.1L142.6,234z
		 M138.9,252.7l19.6-2.1l3.3,17.5C153.3,264.1,145.7,258.9,138.9,252.7z M162.4,250.2c6.4,3.7,13.6,6.6,21,8.2l-17.5,9.9
		L162.4,250.2z M168.8,271.1l17.9-10.1l10.9,15.5C187.5,276.2,177.8,274.4,168.8,271.1z M190.6,259.7c3.1,0.4,6.2,0.6,9.3,0.6
		c3.9,0,7.8-0.4,11.7-0.8L201.3,275L190.6,259.7z M205.1,276.4l10.5-15.9l17.7,9.7C224.4,273.7,214.9,275.8,205.1,276.4z
		 M235.8,267.1l-16.9-9.3c6.6-1.6,12.8-4.3,18.6-7.6L235.8,267.1z M239.7,267.4l1.6-17.1l19.8,2.5
		C254.9,258.5,247.7,263.4,239.7,267.4z M243.4,246.5c3.9-2.7,7.4-5.8,10.9-9.3l7.6,11.5L243.4,246.5z M266.1,248l-7.6-11.3l20.4-6
		C275.3,236.8,271,242.6,266.1,248z M281.3,225.7l-22.9,6.8c5.8-7,10.1-14.8,13-23.5l9.9,16.3l0.2,0.2L281.3,225.7z M283.6,221
		l-8.5-14l14.8-9.5C288.7,205.7,286.7,213.8,283.6,221z M273.3,203.5c1.6-6,2.5-12.4,2.5-18.8c0-1.6-0.2-3.3-0.4-5.2l14.6,13.2
		L273.3,203.5z M276.4,175.4l9.3-13.8c3.1,9.3,4.9,17.5,4.9,24.3c0,0.8,0,1.4,0,2.3L276.4,175.4z"/>
</g>
<g id="Layer_26">
</g>
<g id="Layer_18">
</g>
<g id="Layer_27">
</g>
<g id="Layer_28">
</g>
<g id="Layer_29">
</g>
<g id="Layer_30">
</g>
<g id="Layer_31">
</g>
<g id="Layer_32">
</g>
<g id="Layer_33">
</g>
<g id="Layer_34">
</g>
<g id="Layer_35">
</g>
<g id="Layer_36">
</g>
<g id="Layer_37">
</g>
<g id="Layer_38">
</g>
<g id="Layer_39">
</g>
<g id="Layer_40">
</g>
<g id="Layer_41">
</g>
<g id="Layer_42">
</g>
<g id="Layer_43">
</g>
<g id="Layer_44">
</g>
<g id="Layer_45">
</g>
<g id="Layer_46">
</g>
<g id="Layer_1_1_">
</g>
<g id="nyt_x5F_exporter_x5F_info">
</g>
</svg>
